[
    {
        "id":0,
        "nom":"unNom0",
        "images":["images\/1.png","images\/2.png"],
        "problems":[0,1],
        "budgetPrixDeVente":90.0,
        "description":"Untrucunpeulongpourqu'oncomprennequeçamarche",
        "datePublication":"21\/11\/2019",
        "idUser":"0",
        "aVendre": false
    },
    {
        "id":1,
        "nom":"unNom1",
        "images":[],
        "problems":[],
        "budgetPrixDeVente":90.0,
        "description":"Untrucunpeulongpourqu'oncomprennequeçamarche",
        "idUser":"0",
        "aVendre": false
    },
    {
        "id":2,
        "nom":"unNom2",
        "images":[],
        "problems":[],
        "budgetPrixDeVente":90.0,
        "description":"Untrucunpeulongpourqu'oncomprennequeçamarche",
        "idUser":"1",
        "aVendre": false
    },
    {
        "id":3,
        "nom":"unNom3",
        "images":[],
        "problems":[],
        "budgetPrixDeVente":90.0,
        "description":"Untrucunpeulongpourqu'oncomprennequeçamarche",
        "idUser":"1",
        "aVendre": false
    },
    {
        "id":4,
        "nom":"unNom4",
        "images":[],
        "problems":[],
        "budgetPrixDeVente":90.0,
        "description":"Untrucunpeulongpourqu'oncomprennequeçamarche",
        "idUser":"0",
        "aVendre": true
    },
    {
        "id":5,
        "nom":"unNom5",
        "images":[],
        "problems":[],
        "budgetPrixDeVente":90.0,
        "description":"Untrucunpeulongpourqu'oncomprennequeçamarche",
        "idUser":"1",
        "aVendre": true
    }
]